%YAML 1.1
%TAG !u! tag:unity3d.com,2011:
--- !u!114 &11400000
MonoBehaviour:
  m_ObjectHideFlags: 0
  m_CorrespondingSourceObject: {fileID: 0}
  m_PrefabInstance: {fileID: 0}
  m_PrefabAsset: {fileID: 0}
  m_GameObject: {fileID: 0}
  m_Enabled: 1
  m_EditorHideFlags: 0
  m_Script: {fileID: 11500000, guid: 433140dfcac921948835b1d64291eb72, type: 3}
  m_Name: FoodConfigBun
  m_EditorClassIdentifier: 
  foodTotalAmount: 3000
  eatSpeedScale: 0.9
  fadeColor: {r: 1, g: 0.97421813, b: 0.7311321, a: 0.64705884}
  fadeDuration: 0.2
