%YAML 1.1
%TAG !u! tag:unity3d.com,2011:
--- !u!78 &1
TagManager:
  serializedVersion: 2
  tags:
  - Player1
  - Player2
  - Shoe
  - Poison
  - Flashlight
  layers:
  - Default
  - TransparentFX
  - Ignore Raycast
  - 
  - Water
  - UI
  - Ground
  - SkillObject
  - FlashLightRange
  - SafeArea
  - 
  - 
  - 
  - 
  - 
  - 
  - 
  - 
  - 
  - 
  - 
  - 
  - 
  - 
  - 
  - 
  - 
  - 
  - 
  - 
  - 
  - 
  m_SortingLayers:
  - name: Default
    uniqueID: 0
    locked: 0
  - name: Ground
    uniqueID: 2922147047
    locked: 0
  - name: AboveGround
    uniqueID: 699305859
    locked: 0
  - name: SceneUI
    uniqueID: 4058800513
    locked: 0
  - name: BelowPlayer
    uniqueID: 815569523
    locked: 0
  - name: Player
    uniqueID: 1593108565
    locked: 0
  - name: AbovePlayer
    uniqueID: 3338199333
    locked: 0
  - name: Top
    uniqueID: 2041132691
    locked: 0
